{
  "project_info": {
    "project_number": "304323997687",
    "project_id": "structureapplication",
    "storage_bucket": "structureapplication.appspot.com"
  },
  "client": [
    {
      "client_info": {
        "mobilesdk_app_id": "1:304323997687:android:29be6cc7f820086f8908f2",
        "android_client_info": {
          "package_name": "com.example.structureapplication.censusDev"
        }
      },
      "oauth_client": [
        {
          "client_id": "304323997687-3bkp9ae8auk40f377pfcti5sa6mkpc73.apps.googleusercontent.com",
          "client_type": 3
        }
      ],
      "api_key": [
        {
          "current_key": "AIzaSyCY60k46_dI2C-nZNBFEy-YwWN2hwaTxog"
        }
      ],
      "services": {
        "appinvite_service": {
          "other_platform_oauth_client": [
            {
              "client_id": "304323997687-3bkp9ae8auk40f377pfcti5sa6mkpc73.apps.googleusercontent.com",
              "client_type": 3
            }
          ]
        }
      }
    }
  ],
  "configuration_version": "1"
}